module yolobarbarians

go 1.16

require (
	github.com/fogleman/delaunay v0.0.0-20180910191513-63f09b4c883d // indirect
	github.com/gin-contrib/cors v1.3.1 // indirect
	github.com/gin-gonic/gin v1.7.4 // indirect
	github.com/go-playground/validator/v10 v10.9.0 // indirect
	github.com/go-redis/redis/v8 v8.11.4 // indirect
	github.com/golang/protobuf v1.5.2 // indirect
	github.com/json-iterator/go v1.1.12 // indirect
	github.com/mattn/go-isatty v0.0.14 // indirect
	github.com/modern-go/concurrent v0.0.0-20180306012644-bacd9c7ef1dd // indirect
	github.com/streadway/amqp v1.0.0 // indirect
	github.com/ugorji/go v1.2.6 // indirect
	go.mongodb.org/mongo-driver v1.7.3 // indirect
	golang.org/x/crypto v0.0.0-20210921155107-089bfa567519 // indirect
	golang.org/x/sys v0.0.0-20211007075335-d3039528d8ac // indirect
	golang.org/x/text v0.3.7 // indirect
	google.golang.org/protobuf v1.27.1 // indirect
	gopkg.in/yaml.v2 v2.4.0 // indirect
)
